{
	"result": {
		"players": [
			{
				"account_id": 108174551,
				"player_slot": 0,
				"hero_id": 21,
				"item_0": 48,
				"item_1": 102,
				"item_2": 0,
				"item_3": 116,
				"item_4": 166,
				"item_5": 135,
				"kills": 7,
				"deaths": 9,
				"assists": 10,
				"leaver_status": 0,
				"gold": 3793,
				"last_hits": 353,
				"denies": 24,
				"gold_per_min": 500,
				"xp_per_min": 569,
				"gold_spent": 20740,
				"hero_damage": 8230,
				"tower_damage": 4290,
				"hero_healing": 0,
				"level": 25,
				"ability_upgrades": [
					{
						"ability": 5132,
						"time": 347,
						"level": 1
					},
					{
						"ability": 5131,
						"time": 347,
						"level": 2
					},
					{
						"ability": 5131,
						"time": 404,
						"level": 3
					},
					{
						"ability": 5130,
						"time": 500,
						"level": 4
					},
					{
						"ability": 5131,
						"time": 613,
						"level": 5
					},
					{
						"ability": 5132,
						"time": 647,
						"level": 6
					},
					{
						"ability": 5131,
						"time": 841,
						"level": 7
					},
					{
						"ability": 5130,
						"time": 851,
						"level": 8
					},
					{
						"ability": 5133,
						"time": 972,
						"level": 9
					},
					{
						"ability": 5132,
						"time": 1130,
						"level": 10
					},
					{
						"ability": 5132,
						"time": 1220,
						"level": 11
					},
					{
						"ability": 5133,
						"time": 1532,
						"level": 12
					},
					{
						"ability": 5002,
						"time": 1602,
						"level": 13
					},
					{
						"ability": 5130,
						"time": 1738,
						"level": 14
					},
					{
						"ability": 5130,
						"time": 1865,
						"level": 15
					},
					{
						"ability": 5133,
						"time": 1966,
						"level": 16
					},
					{
						"ability": 5002,
						"time": 2141,
						"level": 17
					},
					{
						"ability": 5002,
						"time": 2319,
						"level": 18
					},
					{
						"ability": 5002,
						"time": 2489,
						"level": 19
					},
					{
						"ability": 5002,
						"time": 2536,
						"level": 20
					},
					{
						"ability": 5002,
						"time": 2742,
						"level": 21
					},
					{
						"ability": 5002,
						"time": 3043,
						"level": 22
					},
					{
						"ability": 5002,
						"time": 3119,
						"level": 23
					},
					{
						"ability": 5002,
						"time": 3299,
						"level": 24
					},
					{
						"ability": 5002,
						"time": 3320,
						"level": 25
					}
				]
				
			},
			{
				"account_id": 11952854,
				"player_slot": 1,
				"hero_id": 69,
				"item_0": 63,
				"item_1": 127,
				"item_2": 1,
				"item_3": 114,
				"item_4": 108,
				"item_5": 119,
				"kills": 16,
				"deaths": 13,
				"assists": 19,
				"leaver_status": 0,
				"gold": 1301,
				"last_hits": 253,
				"denies": 3,
				"gold_per_min": 517,
				"xp_per_min": 571,
				"gold_spent": 23000,
				"hero_damage": 19020,
				"tower_damage": 1104,
				"hero_healing": 0,
				"level": 25,
				"ability_upgrades": [
					{
						"ability": 5339,
						"time": 197,
						"level": 1
					},
					{
						"ability": 5340,
						"time": 326,
						"level": 2
					},
					{
						"ability": 5339,
						"time": 448,
						"level": 3
					},
					{
						"ability": 5340,
						"time": 529,
						"level": 4
					},
					{
						"ability": 5341,
						"time": 645,
						"level": 5
					},
					{
						"ability": 5342,
						"time": 723,
						"level": 6
					},
					{
						"ability": 5339,
						"time": 750,
						"level": 7
					},
					{
						"ability": 5340,
						"time": 896,
						"level": 8
					},
					{
						"ability": 5339,
						"time": 1085,
						"level": 9
					},
					{
						"ability": 5340,
						"time": 1215,
						"level": 10
					},
					{
						"ability": 5342,
						"time": 1253,
						"level": 11
					},
					{
						"ability": 5341,
						"time": 1462,
						"level": 12
					},
					{
						"ability": 5341,
						"time": 1472,
						"level": 13
					},
					{
						"ability": 5341,
						"time": 1676,
						"level": 14
					},
					{
						"ability": 5002,
						"time": 1788,
						"level": 15
					},
					{
						"ability": 5342,
						"time": 1934,
						"level": 16
					},
					{
						"ability": 5002,
						"time": 1953,
						"level": 17
					},
					{
						"ability": 5002,
						"time": 2101,
						"level": 18
					},
					{
						"ability": 5002,
						"time": 2198,
						"level": 19
					},
					{
						"ability": 5002,
						"time": 2217,
						"level": 20
					},
					{
						"ability": 5002,
						"time": 2695,
						"level": 21
					},
					{
						"ability": 5002,
						"time": 2739,
						"level": 22
					},
					{
						"ability": 5002,
						"time": 2867,
						"level": 23
					},
					{
						"ability": 5002,
						"time": 3091,
						"level": 24
					},
					{
						"ability": 5002,
						"time": 3388,
						"level": 25
					}
				]
				
			},
			{
				"account_id": 85239280,
				"player_slot": 2,
				"hero_id": 86,
				"item_0": 180,
				"item_1": 206,
				"item_2": 185,
				"item_3": 57,
				"item_4": 0,
				"item_5": 0,
				"kills": 1,
				"deaths": 11,
				"assists": 12,
				"leaver_status": 0,
				"gold": 1818,
				"last_hits": 83,
				"denies": 9,
				"gold_per_min": 243,
				"xp_per_min": 378,
				"gold_spent": 9775,
				"hero_damage": 4169,
				"tower_damage": 588,
				"hero_healing": 0,
				"level": 20,
				"ability_upgrades": [
					{
						"ability": 5448,
						"time": 180,
						"level": 1
					},
					{
						"ability": 5450,
						"time": 369,
						"level": 2
					},
					{
						"ability": 5450,
						"time": 445,
						"level": 3
					},
					{
						"ability": 5448,
						"time": 580,
						"level": 4
					},
					{
						"ability": 5450,
						"time": 678,
						"level": 5
					},
					{
						"ability": 5452,
						"time": 943,
						"level": 6
					},
					{
						"ability": 5450,
						"time": 1011,
						"level": 7
					},
					{
						"ability": 5448,
						"time": 1222,
						"level": 8
					},
					{
						"ability": 5448,
						"time": 1523,
						"level": 9
					},
					{
						"ability": 5451,
						"time": 1572,
						"level": 10
					},
					{
						"ability": 5452,
						"time": 1638,
						"level": 11
					},
					{
						"ability": 5451,
						"time": 2116,
						"level": 12
					},
					{
						"ability": 5451,
						"time": 2505,
						"level": 13
					},
					{
						"ability": 5451,
						"time": 2530,
						"level": 14
					},
					{
						"ability": 5002,
						"time": 2646,
						"level": 15
					},
					{
						"ability": 5452,
						"time": 3091,
						"level": 16
					},
					{
						"ability": 5002,
						"time": 3166,
						"level": 17
					},
					{
						"ability": 5002,
						"time": 3463,
						"level": 18
					},
					{
						"ability": 5002,
						"time": 3593,
						"level": 19
					},
					{
						"ability": 5002,
						"time": 3650,
						"level": 20
					}
				]
				
			},
			{
				"account_id": 84415804,
				"player_slot": 3,
				"hero_id": 76,
				"item_0": 206,
				"item_1": 96,
				"item_2": 102,
				"item_3": 112,
				"item_4": 0,
				"item_5": 63,
				"kills": 16,
				"deaths": 12,
				"assists": 23,
				"leaver_status": 0,
				"gold": 2535,
				"last_hits": 195,
				"denies": 18,
				"gold_per_min": 480,
				"xp_per_min": 578,
				"gold_spent": 20175,
				"hero_damage": 24061,
				"tower_damage": 2085,
				"hero_healing": 0,
				"level": 25,
				"ability_upgrades": [
					{
						"ability": 5392,
						"time": 261,
						"level": 1
					},
					{
						"ability": 5393,
						"time": 317,
						"level": 2
					},
					{
						"ability": 5393,
						"time": 365,
						"level": 3
					},
					{
						"ability": 5392,
						"time": 402,
						"level": 4
					},
					{
						"ability": 5392,
						"time": 478,
						"level": 5
					},
					{
						"ability": 5394,
						"time": 575,
						"level": 6
					},
					{
						"ability": 5392,
						"time": 659,
						"level": 7
					},
					{
						"ability": 5393,
						"time": 736,
						"level": 8
					},
					{
						"ability": 5393,
						"time": 916,
						"level": 9
					},
					{
						"ability": 5391,
						"time": 1085,
						"level": 10
					},
					{
						"ability": 5394,
						"time": 1186,
						"level": 11
					},
					{
						"ability": 5391,
						"time": 1326,
						"level": 12
					},
					{
						"ability": 5391,
						"time": 1354,
						"level": 13
					},
					{
						"ability": 5391,
						"time": 1474,
						"level": 14
					},
					{
						"ability": 5002,
						"time": 1523,
						"level": 15
					},
					{
						"ability": 5394,
						"time": 1736,
						"level": 16
					},
					{
						"ability": 5002,
						"time": 1906,
						"level": 17
					},
					{
						"ability": 5002,
						"time": 2117,
						"level": 18
					},
					{
						"ability": 5002,
						"time": 2214,
						"level": 19
					},
					{
						"ability": 5002,
						"time": 2214,
						"level": 20
					},
					{
						"ability": 5002,
						"time": 2535,
						"level": 21
					},
					{
						"ability": 5002,
						"time": 2662,
						"level": 22
					},
					{
						"ability": 5002,
						"time": 2846,
						"level": 23
					},
					{
						"ability": 5002,
						"time": 3092,
						"level": 24
					},
					{
						"ability": 5002,
						"time": 3251,
						"level": 25
					}
				]
				
			},
			{
				"account_id": 51571402,
				"player_slot": 4,
				"hero_id": 88,
				"item_0": 1,
				"item_1": 204,
				"item_2": 48,
				"item_3": 176,
				"item_4": 121,
				"item_5": 0,
				"kills": 34,
				"deaths": 8,
				"assists": 26,
				"leaver_status": 0,
				"gold": 2261,
				"last_hits": 59,
				"denies": 1,
				"gold_per_min": 507,
				"xp_per_min": 580,
				"gold_spent": 28230,
				"hero_damage": 40331,
				"tower_damage": 579,
				"hero_healing": 0,
				"level": 25,
				"ability_upgrades": [
					{
						"ability": 5462,
						"time": 249,
						"level": 1
					},
					{
						"ability": 5464,
						"time": 499,
						"level": 2
					},
					{
						"ability": 5462,
						"time": 585,
						"level": 3
					},
					{
						"ability": 5464,
						"time": 678,
						"level": 4
					},
					{
						"ability": 5462,
						"time": 720,
						"level": 5
					},
					{
						"ability": 5465,
						"time": 792,
						"level": 6
					},
					{
						"ability": 5462,
						"time": 898,
						"level": 7
					},
					{
						"ability": 5464,
						"time": 899,
						"level": 8
					},
					{
						"ability": 5464,
						"time": 1063,
						"level": 9
					},
					{
						"ability": 5463,
						"time": 1113,
						"level": 10
					},
					{
						"ability": 5465,
						"time": 1185,
						"level": 11
					},
					{
						"ability": 5463,
						"time": 1265,
						"level": 12
					},
					{
						"ability": 5463,
						"time": 1324,
						"level": 13
					},
					{
						"ability": 5463,
						"time": 1372,
						"level": 14
					},
					{
						"ability": 5002,
						"time": 1475,
						"level": 15
					},
					{
						"ability": 5465,
						"time": 1599,
						"level": 16
					},
					{
						"ability": 5002,
						"time": 1734,
						"level": 17
					},
					{
						"ability": 5002,
						"time": 1813,
						"level": 18
					},
					{
						"ability": 5002,
						"time": 1840,
						"level": 19
					},
					{
						"ability": 5002,
						"time": 1937,
						"level": 20
					},
					{
						"ability": 5002,
						"time": 1954,
						"level": 21
					},
					{
						"ability": 5002,
						"time": 2020,
						"level": 22
					},
					{
						"ability": 5002,
						"time": 2206,
						"level": 23
					},
					{
						"ability": 5002,
						"time": 2464,
						"level": 24
					},
					{
						"ability": 5002,
						"time": 2504,
						"level": 25
					}
				]
				
			},
			{
				"account_id": 94029943,
				"player_slot": 128,
				"hero_id": 71,
				"item_0": 152,
				"item_1": 104,
				"item_2": 135,
				"item_3": 63,
				"item_4": 21,
				"item_5": 182,
				"kills": 10,
				"deaths": 18,
				"assists": 20,
				"leaver_status": 0,
				"gold": 1059,
				"last_hits": 83,
				"denies": 3,
				"gold_per_min": 380,
				"xp_per_min": 573,
				"gold_spent": 15030,
				"hero_damage": 15457,
				"tower_damage": 0,
				"hero_healing": 0,
				"level": 25,
				"ability_upgrades": [
					{
						"ability": 5355,
						"time": 321,
						"level": 1
					},
					{
						"ability": 5353,
						"time": 348,
						"level": 2
					},
					{
						"ability": 5354,
						"time": 395,
						"level": 3
					},
					{
						"ability": 5353,
						"time": 507,
						"level": 4
					},
					{
						"ability": 5353,
						"time": 569,
						"level": 5
					},
					{
						"ability": 5356,
						"time": 690,
						"level": 6
					},
					{
						"ability": 5353,
						"time": 723,
						"level": 7
					},
					{
						"ability": 5354,
						"time": 803,
						"level": 8
					},
					{
						"ability": 5354,
						"time": 1090,
						"level": 9
					},
					{
						"ability": 5354,
						"time": 1401,
						"level": 10
					},
					{
						"ability": 5356,
						"time": 1528,
						"level": 11
					},
					{
						"ability": 5355,
						"time": 1640,
						"level": 12
					},
					{
						"ability": 5355,
						"time": 1679,
						"level": 13
					},
					{
						"ability": 5355,
						"time": 2015,
						"level": 14
					},
					{
						"ability": 5002,
						"time": 2027,
						"level": 15
					},
					{
						"ability": 5356,
						"time": 2222,
						"level": 16
					},
					{
						"ability": 5002,
						"time": 2224,
						"level": 17
					},
					{
						"ability": 5002,
						"time": 2418,
						"level": 18
					},
					{
						"ability": 5002,
						"time": 2443,
						"level": 19
					},
					{
						"ability": 5002,
						"time": 2728,
						"level": 20
					},
					{
						"ability": 5002,
						"time": 2773,
						"level": 21
					},
					{
						"ability": 5002,
						"time": 2839,
						"level": 22
					},
					{
						"ability": 5002,
						"time": 2962,
						"level": 23
					},
					{
						"ability": 5002,
						"time": 3015,
						"level": 24
					},
					{
						"ability": 5002,
						"time": 3428,
						"level": 25
					}
				]
				
			},
			{
				"account_id": 33122792,
				"player_slot": 129,
				"hero_id": 5,
				"item_0": 0,
				"item_1": 1,
				"item_2": 34,
				"item_3": 29,
				"item_4": 46,
				"item_5": 108,
				"kills": 3,
				"deaths": 17,
				"assists": 18,
				"leaver_status": 0,
				"gold": 227,
				"last_hits": 99,
				"denies": 3,
				"gold_per_min": 260,
				"xp_per_min": 401,
				"gold_spent": 9525,
				"hero_damage": 6770,
				"tower_damage": 13,
				"hero_healing": 0,
				"level": 20,
				"ability_upgrades": [
					{
						"ability": 5127,
						"time": 309,
						"level": 1
					},
					{
						"ability": 5128,
						"time": 368,
						"level": 2
					},
					{
						"ability": 5128,
						"time": 462,
						"level": 3
					},
					{
						"ability": 5126,
						"time": 515,
						"level": 4
					},
					{
						"ability": 5126,
						"time": 699,
						"level": 5
					},
					{
						"ability": 5129,
						"time": 847,
						"level": 6
					},
					{
						"ability": 5127,
						"time": 990,
						"level": 7
					},
					{
						"ability": 5128,
						"time": 1110,
						"level": 8
					},
					{
						"ability": 5128,
						"time": 1358,
						"level": 9
					},
					{
						"ability": 5127,
						"time": 1803,
						"level": 10
					},
					{
						"ability": 5129,
						"time": 1997,
						"level": 11
					},
					{
						"ability": 5127,
						"time": 2205,
						"level": 12
					},
					{
						"ability": 5126,
						"time": 2342,
						"level": 13
					},
					{
						"ability": 5126,
						"time": 2364,
						"level": 14
					},
					{
						"ability": 5002,
						"time": 2519,
						"level": 15
					},
					{
						"ability": 5129,
						"time": 2711,
						"level": 16
					},
					{
						"ability": 5002,
						"time": 2823,
						"level": 17
					},
					{
						"ability": 5002,
						"time": 2960,
						"level": 18
					},
					{
						"ability": 5002,
						"time": 3013,
						"level": 19
					},
					{
						"ability": 5002,
						"time": 3286,
						"level": 20
					}
				]
				
			},
			{
				"account_id": 117167629,
				"player_slot": 130,
				"hero_id": 39,
				"item_0": 123,
				"item_1": 63,
				"item_2": 43,
				"item_3": 30,
				"item_4": 100,
				"item_5": 0,
				"kills": 10,
				"deaths": 24,
				"assists": 15,
				"leaver_status": 0,
				"gold": 2079,
				"last_hits": 125,
				"denies": 1,
				"gold_per_min": 365,
				"xp_per_min": 569,
				"gold_spent": 15785,
				"hero_damage": 14211,
				"tower_damage": 663,
				"hero_healing": 0,
				"level": 24,
				"ability_upgrades": [
					{
						"ability": 5173,
						"time": 307,
						"level": 1
					},
					{
						"ability": 5174,
						"time": 307,
						"level": 2
					},
					{
						"ability": 5175,
						"time": 385,
						"level": 3
					},
					{
						"ability": 5175,
						"time": 454,
						"level": 4
					},
					{
						"ability": 5175,
						"time": 499,
						"level": 5
					},
					{
						"ability": 5176,
						"time": 626,
						"level": 6
					},
					{
						"ability": 5175,
						"time": 789,
						"level": 7
					},
					{
						"ability": 5174,
						"time": 820,
						"level": 8
					},
					{
						"ability": 5174,
						"time": 943,
						"level": 9
					},
					{
						"ability": 5174,
						"time": 1253,
						"level": 10
					},
					{
						"ability": 5176,
						"time": 1254,
						"level": 11
					},
					{
						"ability": 5173,
						"time": 1384,
						"level": 12
					},
					{
						"ability": 5173,
						"time": 1384,
						"level": 13
					},
					{
						"ability": 5173,
						"time": 1467,
						"level": 14
					},
					{
						"ability": 5002,
						"time": 1526,
						"level": 15
					},
					{
						"ability": 5176,
						"time": 1706,
						"level": 16
					},
					{
						"ability": 5002,
						"time": 1823,
						"level": 17
					},
					{
						"ability": 5002,
						"time": 2469,
						"level": 18
					},
					{
						"ability": 5002,
						"time": 3027,
						"level": 19
					},
					{
						"ability": 5002,
						"time": 3043,
						"level": 20
					},
					{
						"ability": 5002,
						"time": 3106,
						"level": 21
					},
					{
						"ability": 5002,
						"time": 3287,
						"level": 22
					},
					{
						"ability": 5002,
						"time": 3401,
						"level": 23
					},
					{
						"ability": 5002,
						"time": 3522,
						"level": 24
					}
				]
				
			},
			{
				"account_id": 35448736,
				"player_slot": 131,
				"hero_id": 12,
				"item_0": 160,
				"item_1": 114,
				"item_2": 208,
				"item_3": 196,
				"item_4": 63,
				"item_5": 139,
				"kills": 27,
				"deaths": 4,
				"assists": 9,
				"leaver_status": 0,
				"gold": 2745,
				"last_hits": 469,
				"denies": 8,
				"gold_per_min": 796,
				"xp_per_min": 580,
				"gold_spent": 37815,
				"hero_damage": 29478,
				"tower_damage": 5952,
				"hero_healing": 0,
				"level": 25,
				"ability_upgrades": [
					{
						"ability": 5065,
						"time": 321,
						"level": 1
					},
					{
						"ability": 5066,
						"time": 336,
						"level": 2
					},
					{
						"ability": 5065,
						"time": 371,
						"level": 3
					},
					{
						"ability": 5068,
						"time": 448,
						"level": 4
					},
					{
						"ability": 5065,
						"time": 517,
						"level": 5
					},
					{
						"ability": 5067,
						"time": 586,
						"level": 6
					},
					{
						"ability": 5065,
						"time": 682,
						"level": 7
					},
					{
						"ability": 5066,
						"time": 751,
						"level": 8
					},
					{
						"ability": 5066,
						"time": 892,
						"level": 9
					},
					{
						"ability": 5066,
						"time": 1008,
						"level": 10
					},
					{
						"ability": 5067,
						"time": 1064,
						"level": 11
					},
					{
						"ability": 5068,
						"time": 1234,
						"level": 12
					},
					{
						"ability": 5068,
						"time": 1293,
						"level": 13
					},
					{
						"ability": 5068,
						"time": 1363,
						"level": 14
					},
					{
						"ability": 5067,
						"time": 1535,
						"level": 15
					},
					{
						"ability": 5002,
						"time": 1538,
						"level": 16
					},
					{
						"ability": 5002,
						"time": 1588,
						"level": 17
					},
					{
						"ability": 5002,
						"time": 1642,
						"level": 18
					},
					{
						"ability": 5002,
						"time": 1778,
						"level": 19
					},
					{
						"ability": 5002,
						"time": 1823,
						"level": 20
					},
					{
						"ability": 5002,
						"time": 2028,
						"level": 21
					},
					{
						"ability": 5002,
						"time": 2028,
						"level": 22
					},
					{
						"ability": 5002,
						"time": 2091,
						"level": 23
					},
					{
						"ability": 5002,
						"time": 2301,
						"level": 24
					},
					{
						"ability": 5002,
						"time": 2301,
						"level": 25
					}
				]
				
			},
			{
				"account_id": 8937627,
				"player_slot": 132,
				"hero_id": 79,
				"item_0": 29,
				"item_1": 108,
				"item_2": 100,
				"item_3": 131,
				"item_4": 0,
				"item_5": 36,
				"kills": 3,
				"deaths": 15,
				"assists": 15,
				"leaver_status": 0,
				"gold": 1978,
				"last_hits": 118,
				"denies": 3,
				"gold_per_min": 287,
				"xp_per_min": 453,
				"gold_spent": 12120,
				"hero_damage": 5492,
				"tower_damage": 5,
				"hero_healing": 0,
				"level": 22,
				"ability_upgrades": [
					{
						"ability": 5421,
						"time": 253,
						"level": 1
					},
					{
						"ability": 5422,
						"time": 411,
						"level": 2
					},
					{
						"ability": 5422,
						"time": 483,
						"level": 3
					},
					{
						"ability": 5423,
						"time": 560,
						"level": 4
					},
					{
						"ability": 5422,
						"time": 717,
						"level": 5
					},
					{
						"ability": 5425,
						"time": 793,
						"level": 6
					},
					{
						"ability": 5422,
						"time": 896,
						"level": 7
					},
					{
						"ability": 5423,
						"time": 1048,
						"level": 8
					},
					{
						"ability": 5423,
						"time": 1414,
						"level": 9
					},
					{
						"ability": 5423,
						"time": 1648,
						"level": 10
					},
					{
						"ability": 5425,
						"time": 1815,
						"level": 11
					},
					{
						"ability": 5421,
						"time": 2014,
						"level": 12
					},
					{
						"ability": 5421,
						"time": 2159,
						"level": 13
					},
					{
						"ability": 5421,
						"time": 2365,
						"level": 14
					},
					{
						"ability": 5002,
						"time": 2404,
						"level": 15
					},
					{
						"ability": 5425,
						"time": 2616,
						"level": 16
					},
					{
						"ability": 5002,
						"time": 2620,
						"level": 17
					},
					{
						"ability": 5002,
						"time": 2720,
						"level": 18
					},
					{
						"ability": 5002,
						"time": 3056,
						"level": 19
					},
					{
						"ability": 5002,
						"time": 3372,
						"level": 20
					},
					{
						"ability": 5002,
						"time": 3476,
						"level": 21
					}
				]
				
			}
		]
		,
		"radiant_win": true,
		"duration": 3413,
		"start_time": 1413040246,
		"match_id": 954193971,
		"match_seq_num": 853841797,
		"tower_status_radiant": 1796,
		"tower_status_dire": 6,
		"barracks_status_radiant": 51,
		"barracks_status_dire": 3,
		"cluster": 134,
		"first_blood_time": 104,
		"lobby_type": 1,
		"human_players": 10,
		"leagueid": 1645,
		"positive_votes": 0,
		"negative_votes": 0,
		"game_mode": 3
	}
}